PWD /home/alberto/Desktop/stage/stage/docs/components
INPUT /usr/local/texlive/2020/texmf.cnf
INPUT /usr/local/texlive/2020/texmf-dist/web2c/texmf.cnf
INPUT /usr/local/texlive/2020/texmf-var/web2c/pdftex/pdflatex.fmt
INPUT analisi_dinamica.tex
OUTPUT analisi_dinamica.log
INPUT /usr/local/texlive/2020/texmf-dist/tex/latex/subfiles/subfiles.cls
INPUT /usr/local/texlive/2020/texmf-dist/tex/latex/subfiles/subfiles.cls
INPUT /usr/local/texlive/2020/texmf-dist/tex/latex/tools/verbatim.sty
INPUT /usr/local/texlive/2020/texmf-dist/tex/latex/tools/verbatim.sty
INPUT /usr/local/texlive/2020/texmf-dist/tex/latex/import/import.sty
INPUT /usr/local/texlive/2020/texmf-dist/tex/latex/import/import.sty
INPUT ../static_and_dynamic_analysis_tools.tex
INPUT ../static_and_dynamic_analysis_tools.tex
INPUT /usr/local/texlive/2020/texmf-dist/tex/latex/base/article.cls
INPUT /usr/local/texlive/2020/texmf-dist/tex/latex/base/article.cls
INPUT /usr/local/texlive/2020/texmf-dist/tex/latex/base/size10.clo
INPUT /usr/local/texlive/2020/texmf-dist/tex/latex/base/size10.clo
INPUT /usr/local/texlive/2020/texmf-dist/tex/latex/subfiles/subfiles.sty
INPUT /usr/local/texlive/2020/texmf-dist/tex/latex/subfiles/subfiles.sty
INPUT /usr/local/texlive/2020/texmf-dist/tex/latex/fancyhdr/fancyhdr.sty
INPUT /usr/local/texlive/2020/texmf-dist/tex/latex/fancyhdr/fancyhdr.sty
INPUT /usr/local/texlive/2020/texmf-dist/tex/latex/graphics/graphicx.sty
INPUT /usr/local/texlive/2020/texmf-dist/tex/latex/graphics/graphicx.sty
INPUT /usr/local/texlive/2020/texmf-dist/tex/latex/graphics/keyval.sty
INPUT /usr/local/texlive/2020/texmf-dist/tex/latex/graphics/keyval.sty
INPUT /usr/local/texlive/2020/texmf-dist/tex/latex/graphics/graphics.sty
INPUT /usr/local/texlive/2020/texmf-dist/tex/latex/graphics/graphics.sty
INPUT /usr/local/texlive/2020/texmf-dist/tex/latex/graphics/trig.sty
INPUT /usr/local/texlive/2020/texmf-dist/tex/latex/graphics/trig.sty
INPUT /usr/local/texlive/2020/texmf-dist/tex/latex/graphics-cfg/graphics.cfg
INPUT /usr/local/texlive/2020/texmf-dist/tex/latex/graphics-cfg/graphics.cfg
INPUT /usr/local/texlive/2020/texmf-dist/tex/latex/graphics-def/pdftex.def
INPUT /usr/local/texlive/2020/texmf-dist/tex/latex/graphics-def/pdftex.def
INPUT /usr/local/texlive/2020/texmf-dist/tex/latex/subfigure/subfigure.sty
INPUT /usr/local/texlive/2020/texmf-dist/tex/latex/subfigure/subfigure.sty
INPUT /usr/local/texlive/2020/texmf-dist/tex/latex/subfigure/subfigure.cfg
INPUT /usr/local/texlive/2020/texmf-dist/tex/latex/subfigure/subfigure.cfg
INPUT /usr/local/texlive/2020/texmf-dist/tex/latex/lastpage/lastpage.sty
INPUT /usr/local/texlive/2020/texmf-dist/tex/latex/lastpage/lastpage.sty
INPUT /usr/local/texlive/2020/texmf-dist/tex/latex/anysize/anysize.sty
INPUT /usr/local/texlive/2020/texmf-dist/tex/latex/anysize/anysize.sty
INPUT /usr/local/texlive/2020/texmf-dist/tex/latex/float/float.sty
INPUT /usr/local/texlive/2020/texmf-dist/tex/latex/float/float.sty
INPUT /usr/local/texlive/2020/texmf-dist/tex/latex/minted/minted.sty
INPUT /usr/local/texlive/2020/texmf-dist/tex/latex/minted/minted.sty
INPUT /usr/local/texlive/2020/texmf-dist/tex/latex/kvoptions/kvoptions.sty
INPUT /usr/local/texlive/2020/texmf-dist/tex/latex/kvoptions/kvoptions.sty
INPUT /usr/local/texlive/2020/texmf-dist/tex/generic/ltxcmds/ltxcmds.sty
INPUT /usr/local/texlive/2020/texmf-dist/tex/generic/ltxcmds/ltxcmds.sty
INPUT /usr/local/texlive/2020/texmf-dist/tex/generic/kvsetkeys/kvsetkeys.sty
INPUT /usr/local/texlive/2020/texmf-dist/tex/generic/kvsetkeys/kvsetkeys.sty
INPUT /usr/local/texlive/2020/texmf-dist/tex/latex/fvextra/fvextra.sty
INPUT /usr/local/texlive/2020/texmf-dist/tex/latex/fvextra/fvextra.sty
INPUT /usr/local/texlive/2020/texmf-dist/tex/latex/base/ifthen.sty
INPUT /usr/local/texlive/2020/texmf-dist/tex/latex/base/ifthen.sty
INPUT /usr/local/texlive/2020/texmf-dist/tex/latex/etoolbox/etoolbox.sty
INPUT /usr/local/texlive/2020/texmf-dist/tex/latex/etoolbox/etoolbox.sty
INPUT /usr/local/texlive/2020/texmf-dist/tex/latex/fancyvrb/fancyvrb.sty
INPUT /usr/local/texlive/2020/texmf-dist/tex/latex/fancyvrb/fancyvrb.sty
INPUT /usr/local/texlive/2020/texmf-dist/tex/latex/upquote/upquote.sty
INPUT /usr/local/texlive/2020/texmf-dist/tex/latex/upquote/upquote.sty
INPUT /usr/local/texlive/2020/texmf-dist/tex/latex/lineno/lineno.sty
INPUT /usr/local/texlive/2020/texmf-dist/tex/latex/lineno/lineno.sty
INPUT /usr/local/texlive/2020/texmf-dist/tex/latex/tools/calc.sty
INPUT /usr/local/texlive/2020/texmf-dist/tex/latex/tools/calc.sty
INPUT /usr/local/texlive/2020/texmf-dist/tex/latex/tools/shellesc.sty
INPUT /usr/local/texlive/2020/texmf-dist/tex/latex/tools/shellesc.sty
INPUT /usr/local/texlive/2020/texmf-dist/tex/latex/tools/shellesc.sty
INPUT /usr/local/texlive/2020/texmf-dist/tex/latex/ifplatform/ifplatform.sty
INPUT /usr/local/texlive/2020/texmf-dist/tex/latex/ifplatform/ifplatform.sty
INPUT /usr/local/texlive/2020/texmf-dist/tex/latex/pdftexcmds/pdftexcmds.sty
INPUT /usr/local/texlive/2020/texmf-dist/tex/latex/pdftexcmds/pdftexcmds.sty
INPUT /usr/local/texlive/2020/texmf-dist/tex/generic/infwarerr/infwarerr.sty
INPUT /usr/local/texlive/2020/texmf-dist/tex/generic/infwarerr/infwarerr.sty
INPUT /usr/local/texlive/2020/texmf-dist/tex/generic/iftex/iftex.sty
INPUT /usr/local/texlive/2020/texmf-dist/tex/generic/iftex/iftex.sty
INPUT /usr/local/texlive/2020/texmf-dist/tex/generic/catchfile/catchfile.sty
INPUT /usr/local/texlive/2020/texmf-dist/tex/generic/catchfile/catchfile.sty
INPUT /usr/local/texlive/2020/texmf-dist/tex/generic/etexcmds/etexcmds.sty
INPUT /usr/local/texlive/2020/texmf-dist/tex/generic/etexcmds/etexcmds.sty
INPUT /usr/local/texlive/2020/texmf-dist/tex/generic/iftex/ifluatex.sty
INPUT /usr/local/texlive/2020/texmf-dist/tex/generic/iftex/ifluatex.sty
INPUT /dev/null
INPUT analisi_dinamica.w18
INPUT analisi_dinamica.w18
INPUT /usr/local/texlive/2020/texmf-dist/tex/generic/xstring/xstring.sty
INPUT /usr/local/texlive/2020/texmf-dist/tex/generic/xstring/xstring.sty
INPUT /usr/local/texlive/2020/texmf-dist/tex/generic/xstring/xstring.tex
INPUT /usr/local/texlive/2020/texmf-dist/tex/latex/framed/framed.sty
INPUT /usr/local/texlive/2020/texmf-dist/tex/latex/framed/framed.sty
INPUT /usr/local/texlive/2020/texmf-dist/tex/latex/hyperref/hyperref.sty
INPUT /usr/local/texlive/2020/texmf-dist/tex/latex/hyperref/hyperref.sty
INPUT /usr/local/texlive/2020/texmf-dist/tex/generic/kvdefinekeys/kvdefinekeys.sty
INPUT /usr/local/texlive/2020/texmf-dist/tex/generic/kvdefinekeys/kvdefinekeys.sty
INPUT /usr/local/texlive/2020/texmf-dist/tex/generic/pdfescape/pdfescape.sty
INPUT /usr/local/texlive/2020/texmf-dist/tex/generic/pdfescape/pdfescape.sty
INPUT /usr/local/texlive/2020/texmf-dist/tex/latex/hycolor/hycolor.sty
INPUT /usr/local/texlive/2020/texmf-dist/tex/latex/hycolor/hycolor.sty
INPUT /usr/local/texlive/2020/texmf-dist/tex/latex/letltxmacro/letltxmacro.sty
INPUT /usr/local/texlive/2020/texmf-dist/tex/latex/letltxmacro/letltxmacro.sty
INPUT /usr/local/texlive/2020/texmf-dist/tex/latex/auxhook/auxhook.sty
INPUT /usr/local/texlive/2020/texmf-dist/tex/latex/auxhook/auxhook.sty
INPUT /usr/local/texlive/2020/texmf-dist/tex/latex/hyperref/pd1enc.def
INPUT /usr/local/texlive/2020/texmf-dist/tex/latex/hyperref/pd1enc.def
INPUT /usr/local/texlive/2020/texmf-dist/tex/generic/intcalc/intcalc.sty
INPUT /usr/local/texlive/2020/texmf-dist/tex/generic/intcalc/intcalc.sty
INPUT /usr/local/texlive/2020/texmf-dist/tex/latex/url/url.sty
INPUT /usr/local/texlive/2020/texmf-dist/tex/latex/url/url.sty
INPUT /usr/local/texlive/2020/texmf-dist/tex/generic/bitset/bitset.sty
INPUT /usr/local/texlive/2020/texmf-dist/tex/generic/bitset/bitset.sty
INPUT /usr/local/texlive/2020/texmf-dist/tex/generic/bigintcalc/bigintcalc.sty
INPUT /usr/local/texlive/2020/texmf-dist/tex/generic/bigintcalc/bigintcalc.sty
INPUT /usr/local/texlive/2020/texmf-dist/tex/generic/atbegshi/atbegshi.sty
INPUT /usr/local/texlive/2020/texmf-dist/tex/generic/atbegshi/atbegshi.sty
INPUT /usr/local/texlive/2020/texmf-dist/tex/latex/hyperref/hpdftex.def
INPUT /usr/local/texlive/2020/texmf-dist/tex/latex/hyperref/hpdftex.def
INPUT /usr/local/texlive/2020/texmf-dist/tex/latex/atveryend/atveryend.sty
INPUT /usr/local/texlive/2020/texmf-dist/tex/latex/atveryend/atveryend.sty
INPUT /usr/local/texlive/2020/texmf-dist/tex/latex/rerunfilecheck/rerunfilecheck.sty
INPUT /usr/local/texlive/2020/texmf-dist/tex/latex/rerunfilecheck/rerunfilecheck.sty
INPUT /usr/local/texlive/2020/texmf-dist/tex/generic/uniquecounter/uniquecounter.sty
INPUT /usr/local/texlive/2020/texmf-dist/tex/generic/uniquecounter/uniquecounter.sty
INPUT /usr/local/texlive/2020/texmf-dist/tex/latex/graphics/color.sty
INPUT /usr/local/texlive/2020/texmf-dist/tex/latex/graphics/color.sty
INPUT /usr/local/texlive/2020/texmf-dist/tex/latex/graphics-cfg/color.cfg
INPUT /usr/local/texlive/2020/texmf-dist/tex/latex/graphics-cfg/color.cfg
INPUT /usr/local/texlive/2020/texmf-dist/tex/latex/colortbl/colortbl.sty
INPUT /usr/local/texlive/2020/texmf-dist/tex/latex/colortbl/colortbl.sty
INPUT /usr/local/texlive/2020/texmf-dist/tex/latex/tools/array.sty
INPUT /usr/local/texlive/2020/texmf-dist/tex/latex/tools/array.sty
INPUT analisi_dinamica.aex
INPUT analisi_dinamica.aex
INPUT /usr/local/texlive/2020/texmf-dist/tex/latex/l3backend/l3backend-pdfmode.def
INPUT /usr/local/texlive/2020/texmf-dist/tex/latex/l3backend/l3backend-pdfmode.def
INPUT analisi_dinamica.aux
INPUT analisi_dinamica.aux
OUTPUT analisi_dinamica.aux
INPUT /usr/local/texlive/2020/texmf-dist/tex/context/base/mkii/supp-pdf.mkii
INPUT /usr/local/texlive/2020/texmf-dist/tex/context/base/mkii/supp-pdf.mkii
INPUT /usr/local/texlive/2020/texmf-dist/tex/latex/epstopdf-pkg/epstopdf-base.sty
INPUT /usr/local/texlive/2020/texmf-dist/tex/latex/epstopdf-pkg/epstopdf-base.sty
INPUT /usr/local/texlive/2020/texmf-dist/tex/latex/latexconfig/epstopdf-sys.cfg
INPUT /usr/local/texlive/2020/texmf-dist/tex/latex/latexconfig/epstopdf-sys.cfg
INPUT /usr/local/texlive/2020/texmf-dist/tex/latex/hyperref/nameref.sty
INPUT /usr/local/texlive/2020/texmf-dist/tex/latex/hyperref/nameref.sty
INPUT /usr/local/texlive/2020/texmf-dist/tex/latex/refcount/refcount.sty
INPUT /usr/local/texlive/2020/texmf-dist/tex/latex/refcount/refcount.sty
INPUT /usr/local/texlive/2020/texmf-dist/tex/generic/gettitlestring/gettitlestring.sty
INPUT /usr/local/texlive/2020/texmf-dist/tex/generic/gettitlestring/gettitlestring.sty
INPUT analisi_dinamica.out
INPUT analisi_dinamica.out
INPUT analisi_dinamica.out
INPUT analisi_dinamica.out
OUTPUT analisi_dinamica.pdf
INPUT ./analisi_dinamica.out
INPUT ./analisi_dinamica.out
OUTPUT analisi_dinamica.out
INPUT /usr/local/texlive/2020/texmf-dist/fonts/map/fontname/texfonts.map
INPUT /usr/local/texlive/2020/texmf-dist/fonts/tfm/public/cm/cmr12.tfm
INPUT /usr/local/texlive/2020/texmf-dist/fonts/tfm/public/cm/cmbx12.tfm
INPUT /usr/local/texlive/2020/texmf-dist/fonts/tfm/public/cm/cmtt12.tfm
INPUT /usr/local/texlive/2020/texmf-dist/fonts/tfm/public/cm/cmtt10.tfm
INPUT /usr/local/texlive/2020/texmf-dist/fonts/tfm/jknappen/ec/tcrm1000.tfm
INPUT /usr/local/texlive/2020/texmf-dist/fonts/tfm/public/cm/cmbx10.tfm
OUTPUT analisi_dinamica.pyg
INPUT _minted-analisi_dinamica/default-pyg-prefix.pygstyle
INPUT _minted-analisi_dinamica/default-pyg-prefix.pygstyle
INPUT _minted-analisi_dinamica/default-pyg-prefix.pygstyle
INPUT _minted-analisi_dinamica/default-pyg-prefix.pygstyle
INPUT _minted-analisi_dinamica/default.pygstyle
INPUT _minted-analisi_dinamica/default.pygstyle
INPUT _minted-analisi_dinamica/default.pygstyle
INPUT _minted-analisi_dinamica/default.pygstyle
INPUT ./analisi_dinamica.pyg
INPUT _minted-analisi_dinamica/FB42DC13F66AEDF1DF3E0B644281E11897FEF336BE7AE0E42AC775489651E25A.pygtex
INPUT _minted-analisi_dinamica/FB42DC13F66AEDF1DF3E0B644281E11897FEF336BE7AE0E42AC775489651E25A.pygtex
INPUT _minted-analisi_dinamica/FB42DC13F66AEDF1DF3E0B644281E11897FEF336BE7AE0E42AC775489651E25A.pygtex
INPUT _minted-analisi_dinamica/FB42DC13F66AEDF1DF3E0B644281E11897FEF336BE7AE0E42AC775489651E25A.pygtex
INPUT /usr/local/texlive/2020/texmf-var/fonts/map/pdftex/updmap/pdftex.map
OUTPUT analisi_dinamica.pyg
INPUT ./analisi_dinamica.pyg
INPUT _minted-analisi_dinamica/C9F7155AE5E39F523396D3E30317908197FEF336BE7AE0E42AC775489651E25A.pygtex
INPUT _minted-analisi_dinamica/C9F7155AE5E39F523396D3E30317908197FEF336BE7AE0E42AC775489651E25A.pygtex
INPUT _minted-analisi_dinamica/C9F7155AE5E39F523396D3E30317908197FEF336BE7AE0E42AC775489651E25A.pygtex
INPUT _minted-analisi_dinamica/C9F7155AE5E39F523396D3E30317908197FEF336BE7AE0E42AC775489651E25A.pygtex
OUTPUT analisi_dinamica.pyg
INPUT ./analisi_dinamica.pyg
INPUT _minted-analisi_dinamica/284DE1E3246E39C57E8098C68C6E2B9926A7049BD2508768481EE985DE71AE66.pygtex
INPUT _minted-analisi_dinamica/284DE1E3246E39C57E8098C68C6E2B9926A7049BD2508768481EE985DE71AE66.pygtex
INPUT _minted-analisi_dinamica/284DE1E3246E39C57E8098C68C6E2B9926A7049BD2508768481EE985DE71AE66.pygtex
INPUT _minted-analisi_dinamica/284DE1E3246E39C57E8098C68C6E2B9926A7049BD2508768481EE985DE71AE66.pygtex
INPUT /usr/local/texlive/2020/texmf-dist/fonts/tfm/public/cm/cmitt10.tfm
OUTPUT analisi_dinamica.pyg
INPUT ./analisi_dinamica.pyg
INPUT _minted-analisi_dinamica/05D172AC23A3ABA040FA864E6F4C197A97FEF336BE7AE0E42AC775489651E25A.pygtex
INPUT _minted-analisi_dinamica/05D172AC23A3ABA040FA864E6F4C197A97FEF336BE7AE0E42AC775489651E25A.pygtex
INPUT _minted-analisi_dinamica/05D172AC23A3ABA040FA864E6F4C197A97FEF336BE7AE0E42AC775489651E25A.pygtex
INPUT _minted-analisi_dinamica/05D172AC23A3ABA040FA864E6F4C197A97FEF336BE7AE0E42AC775489651E25A.pygtex
OUTPUT analisi_dinamica.pyg
INPUT ./analisi_dinamica.pyg
INPUT _minted-analisi_dinamica/F7FAE3A630435FEF41FD1EB3552E631A97FEF336BE7AE0E42AC775489651E25A.pygtex
INPUT _minted-analisi_dinamica/F7FAE3A630435FEF41FD1EB3552E631A97FEF336BE7AE0E42AC775489651E25A.pygtex
INPUT _minted-analisi_dinamica/F7FAE3A630435FEF41FD1EB3552E631A97FEF336BE7AE0E42AC775489651E25A.pygtex
INPUT _minted-analisi_dinamica/F7FAE3A630435FEF41FD1EB3552E631A97FEF336BE7AE0E42AC775489651E25A.pygtex
OUTPUT analisi_dinamica.pyg
INPUT ./analisi_dinamica.pyg
INPUT _minted-analisi_dinamica/92F57CBC4562EB909DCED39C2D2931A497FEF336BE7AE0E42AC775489651E25A.pygtex
INPUT _minted-analisi_dinamica/92F57CBC4562EB909DCED39C2D2931A497FEF336BE7AE0E42AC775489651E25A.pygtex
INPUT _minted-analisi_dinamica/92F57CBC4562EB909DCED39C2D2931A497FEF336BE7AE0E42AC775489651E25A.pygtex
INPUT _minted-analisi_dinamica/92F57CBC4562EB909DCED39C2D2931A497FEF336BE7AE0E42AC775489651E25A.pygtex
OUTPUT analisi_dinamica.pyg
INPUT ./analisi_dinamica.pyg
INPUT _minted-analisi_dinamica/ABC10CD16E753E8EF1682935BFD2C75D97FEF336BE7AE0E42AC775489651E25A.pygtex
INPUT _minted-analisi_dinamica/ABC10CD16E753E8EF1682935BFD2C75D97FEF336BE7AE0E42AC775489651E25A.pygtex
INPUT _minted-analisi_dinamica/ABC10CD16E753E8EF1682935BFD2C75D97FEF336BE7AE0E42AC775489651E25A.pygtex
INPUT _minted-analisi_dinamica/ABC10CD16E753E8EF1682935BFD2C75D97FEF336BE7AE0E42AC775489651E25A.pygtex
OUTPUT analisi_dinamica.pyg
INPUT ./analisi_dinamica.pyg
INPUT _minted-analisi_dinamica/5652035E40EC3F3E9AE96934E848FEE197FEF336BE7AE0E42AC775489651E25A.pygtex
INPUT _minted-analisi_dinamica/5652035E40EC3F3E9AE96934E848FEE197FEF336BE7AE0E42AC775489651E25A.pygtex
INPUT _minted-analisi_dinamica/5652035E40EC3F3E9AE96934E848FEE197FEF336BE7AE0E42AC775489651E25A.pygtex
INPUT _minted-analisi_dinamica/5652035E40EC3F3E9AE96934E848FEE197FEF336BE7AE0E42AC775489651E25A.pygtex
INPUT /usr/local/texlive/2020/texmf-dist/fonts/tfm/public/cm/cmti10.tfm
INPUT analisi_dinamica.aux
INPUT ./analisi_dinamica.out
INPUT ./analisi_dinamica.out
INPUT analisi_dinamica.pyg
INPUT /usr/local/texlive/2020/texmf-dist/fonts/enc/dvips/cm-super/cm-super-ts1.enc
INPUT /usr/local/texlive/2020/texmf-dist/fonts/type1/public/amsfonts/cm/cmbx10.pfb
INPUT /usr/local/texlive/2020/texmf-dist/fonts/type1/public/amsfonts/cm/cmbx12.pfb
INPUT /usr/local/texlive/2020/texmf-dist/fonts/type1/public/amsfonts/cm/cmitt10.pfb
INPUT /usr/local/texlive/2020/texmf-dist/fonts/type1/public/amsfonts/cm/cmr10.pfb
INPUT /usr/local/texlive/2020/texmf-dist/fonts/type1/public/amsfonts/cm/cmti10.pfb
INPUT /usr/local/texlive/2020/texmf-dist/fonts/type1/public/amsfonts/cm/cmtt10.pfb
INPUT /usr/local/texlive/2020/texmf-dist/fonts/type1/public/amsfonts/cm/cmtt12.pfb
INPUT /usr/local/texlive/2020/texmf-dist/fonts/type1/public/cm-super/sfrm1000.pfb
