\relax 
\providecommand\hyper@newdestlabel[2]{}
\providecommand\HyperFirstAtBeginDocument{\AtBeginDocument}
\HyperFirstAtBeginDocument{\ifx\hyper@anchor\@undefined
\global\let\oldcontentsline\contentsline
\gdef\contentsline#1#2#3#4{\oldcontentsline{#1}{#2}{#3}}
\global\let\oldnewlabel\newlabel
\gdef\newlabel#1#2{\newlabelxx{#1}#2}
\gdef\newlabelxx#1#2#3#4#5#6{\oldnewlabel{#1}{{#2}{#3}}}
\AtEndDocument{\ifx\hyper@anchor\@undefined
\let\contentsline\oldcontentsline
\let\newlabel\oldnewlabel
\fi}
\fi}
\global\let\hyper@last\relax 
\gdef\HyperFirstAtBeginDocument#1{#1}
\providecommand\HyField@AuxAddToFields[1]{}
\providecommand\HyField@AuxAddToCoFields[2]{}
\@writefile{toc}{\contentsline {subsection}{\numberline {0.1}File di configurazione}{1}{subsection.0.1}\protected@file@percent }
\newlabel{sub:file_di_configurazione}{{0.1}{1}{File di configurazione}{subsection.0.1}{}}
\@writefile{toc}{\contentsline {subsubsection}{\numberline {0.1.1}config.properties}{1}{subsubsection.0.1.1}\protected@file@percent }
\newlabel{subs:config.properties}{{0.1.1}{1}{config.properties}{subsubsection.0.1.1}{}}
\@writefile{toc}{\contentsline {subsubsection}{\numberline {0.1.2}sonar-project.properties}{1}{subsubsection.0.1.2}\protected@file@percent }
\newlabel{subs:sonar-project.properties}{{0.1.2}{1}{sonar-project.properties}{subsubsection.0.1.2}{}}
\newlabel{LastPage}{{}{1}{}{page.1}{}}
\xdef\lastpage@lastpage{1}
\xdef\lastpage@lastpageHy{1}
