\relax 
\@writefile{toc}{\contentsline {subsection}{\numberline {0.1}Analisi statica del codice}{1}\protected@file@percent }
\newlabel{analisi_statica}{{0.1}{1}}
\@writefile{toc}{\contentsline {subsection}{\numberline {0.2}Analisi dinamica del codice}{1}\protected@file@percent }
\newlabel{analisi_dinamica}{{0.2}{1}}
\@writefile{toc}{\contentsline {subsubsection}{\numberline {0.2.1}Profiling deterministico}{1}\protected@file@percent }
\newlabel{profiling_deterministico}{{0.2.1}{1}}
\@writefile{toc}{\contentsline {subsubsection}{\numberline {0.2.2}Profiling statistico}{1}\protected@file@percent }
\newlabel{profiling statistico}{{0.2.2}{1}}
\newlabel{LastPage}{{}{1}}
\xdef\lastpage@lastpage{1}
\gdef\lastpage@lastpageHy{}
