\relax 
\providecommand\hyper@newdestlabel[2]{}
\providecommand\HyperFirstAtBeginDocument{\AtBeginDocument}
\HyperFirstAtBeginDocument{\ifx\hyper@anchor\@undefined
\global\let\oldcontentsline\contentsline
\gdef\contentsline#1#2#3#4{\oldcontentsline{#1}{#2}{#3}}
\global\let\oldnewlabel\newlabel
\gdef\newlabel#1#2{\newlabelxx{#1}#2}
\gdef\newlabelxx#1#2#3#4#5#6{\oldnewlabel{#1}{{#2}{#3}}}
\AtEndDocument{\ifx\hyper@anchor\@undefined
\let\contentsline\oldcontentsline
\let\newlabel\oldnewlabel
\fi}
\fi}
\global\let\hyper@last\relax 
\gdef\HyperFirstAtBeginDocument#1{#1}
\providecommand\HyField@AuxAddToFields[1]{}
\providecommand\HyField@AuxAddToCoFields[2]{}
\@writefile{toc}{\contentsline {section}{\numberline {1}Scopo del documento}{2}{section.1}\protected@file@percent }
\newlabel{sec:scopo_del_documento}{{1}{2}{Scopo del documento}{section.1}{}}
\@writefile{toc}{\contentsline {section}{\numberline {2}Introduzione}{2}{section.2}\protected@file@percent }
\newlabel{sec:introduzione}{{2}{2}{Introduzione}{section.2}{}}
\@writefile{toc}{\contentsline {subsection}{\numberline {2.1}Clustering gerarchico}{2}{subsection.2.1}\protected@file@percent }
\newlabel{subs:clustering_gerarchico}{{2.1}{2}{Clustering gerarchico}{subsection.2.1}{}}
\@writefile{lof}{\contentsline {figure}{\numberline {1}{\ignorespaces esempio di dendrogramma}}{3}{figure.1}\protected@file@percent }
\@writefile{toc}{\contentsline {subsection}{\numberline {2.2}Clustering partizionale}{3}{subsection.2.2}\protected@file@percent }
\newlabel{subs:clustering_partizionale}{{2.2}{3}{Clustering partizionale}{subsection.2.2}{}}
\@writefile{toc}{\contentsline {subsection}{\numberline {2.3}Clustering density based}{3}{subsection.2.3}\protected@file@percent }
\newlabel{subs:clustering density based}{{2.3}{3}{Clustering density based}{subsection.2.3}{}}
\@writefile{toc}{\contentsline {section}{\numberline {3}Dbscan}{3}{section.3}\protected@file@percent }
\newlabel{sec:dbscan}{{3}{3}{Dbscan}{section.3}{}}
\@writefile{toc}{\contentsline {subsubsection}{\numberline {3.0.1}Descrizione}{3}{subsubsection.3.0.1}\protected@file@percent }
\newlabel{subs:descrizione_dell'algoritmo}{{3.0.1}{3}{Descrizione}{subsubsection.3.0.1}{}}
\@writefile{toc}{\contentsline {subsubsection}{\numberline {3.0.2}Complessità}{4}{subsubsection.3.0.2}\protected@file@percent }
\newlabel{subs:complessità}{{3.0.2}{4}{Complessità}{subsubsection.3.0.2}{}}
\@writefile{lof}{\contentsline {figure}{\numberline {2}{\ignorespaces esempio di applicazione dell'algoritmo di dbscan. I punti raggiunti da una doppia freccia sono i core point in quanto hanno un numero pari o maggiore di minPts a distanza minore di epsilon.Essendo, inoltre, l'uno raggiungibile dall'altro formano un unico cluster. I punti più esterni e raggiunti da una freccia sono dei punti raggiungibili mediante una sequenza di core points e quindi rientrano a far parte del cluster. Il punto N in alto non è un core point e non è raggiungibile da nessun punto. Per tale motivo viene considerato un punto di rumore.}}{4}{figure.2}\protected@file@percent }
\@writefile{toc}{\contentsline {section}{\numberline {4}K-means}{4}{section.4}\protected@file@percent }
\newlabel{sec:K-means}{{4}{4}{K-means}{section.4}{}}
\@writefile{toc}{\contentsline {subsubsection}{\numberline {4.0.1}Descrizione}{4}{subsubsection.4.0.1}\protected@file@percent }
\newlabel{subs:descrizione}{{4.0.1}{4}{Descrizione}{subsubsection.4.0.1}{}}
\@writefile{toc}{\contentsline {subsubsection}{\numberline {4.0.2}Complessità}{5}{subsubsection.4.0.2}\protected@file@percent }
\newlabel{subs:complessità}{{4.0.2}{5}{Complessità}{subsubsection.4.0.2}{}}
\@writefile{toc}{\contentsline {section}{\numberline {5}Dbscan vs K-means}{5}{section.5}\protected@file@percent }
\newlabel{sec:dbscan_vs_k-means}{{5}{5}{Dbscan vs K-means}{section.5}{}}
\@writefile{toc}{\contentsline {subsection}{\numberline {5.1}Iris}{5}{subsection.5.1}\protected@file@percent }
\newlabel{sub:iris}{{5.1}{5}{Iris}{subsection.5.1}{}}
\@writefile{lof}{\contentsline {figure}{\numberline {3}{\ignorespaces distribuzione delle istanze del dataset Iris su un grafico cartesiano}}{5}{figure.3}\protected@file@percent }
\@writefile{lof}{\contentsline {figure}{\numberline {4}{\ignorespaces Risultato dell'algoritmo di clustering Dbscan}}{6}{figure.4}\protected@file@percent }
\newlabel{fig:dbscan-sepal}{{4}{6}{Risultato dell'algoritmo di clustering Dbscan}{figure.4}{}}
\@writefile{lof}{\contentsline {figure}{\numberline {5}{\ignorespaces Risultato dell'algoritmo di clustering K-means}}{6}{figure.5}\protected@file@percent }
\@writefile{lof}{\contentsline {figure}{\numberline {6}{\ignorespaces distribuzione delle istanze del dataset Iris su un grafico cartesiano}}{7}{figure.6}\protected@file@percent }
\@writefile{lof}{\contentsline {figure}{\numberline {7}{\ignorespaces Risultato dell'algoritmo di clustering Dbscan}}{7}{figure.7}\protected@file@percent }
\@writefile{lof}{\contentsline {figure}{\numberline {8}{\ignorespaces Risultato dell'algoritmo di clustering K-means}}{8}{figure.8}\protected@file@percent }
\newlabel{LastPage}{{}{8}{}{page.8}{}}
\xdef\lastpage@lastpage{8}
\xdef\lastpage@lastpageHy{8}
