\BOOKMARK [1][-]{section.1}{Scopo del documento}{}% 1
\BOOKMARK [1][-]{section.2}{Introduzione}{}% 2
\BOOKMARK [2][-]{subsection.2.1}{Analisi statica del codice}{section.2}% 3
\BOOKMARK [2][-]{subsection.2.2}{Analisi dinamica del codice}{section.2}% 4
\BOOKMARK [3][-]{subsubsection.2.2.1}{Profiling}{subsection.2.2}% 5
\BOOKMARK [1][-]{section.3}{Strumenti di analisi statica}{}% 6
\BOOKMARK [2][-]{subsection.3.1}{Pylint}{section.3}% 7
\BOOKMARK [3][-]{subsubsection.3.1.1}{Installazione e avvio}{subsection.3.1}% 8
\BOOKMARK [3][-]{subsubsection.3.1.2}{Punti di forza e debolezza}{subsection.3.1}% 9
\BOOKMARK [2][-]{subsection.3.2}{Pyflakes}{section.3}% 10
\BOOKMARK [3][-]{subsubsection.3.2.1}{Installazione e avvio}{subsection.3.2}% 11
\BOOKMARK [3][-]{subsubsection.3.2.2}{Punti di forza e debolezza}{subsection.3.2}% 12
\BOOKMARK [2][-]{subsection.3.3}{Bandit}{section.3}% 13
\BOOKMARK [2][-]{subsection.3.4}{Coverage.py}{section.3}% 14
\BOOKMARK [3][-]{subsubsection.3.4.1}{Punti di forza e debolezza}{subsection.3.4}% 15
\BOOKMARK [2][-]{subsection.3.5}{Sonarqube}{section.3}% 16
\BOOKMARK [3][-]{subsubsection.3.5.1}{Installazione di una demo}{subsection.3.5}% 17
\BOOKMARK [3][-]{subsubsection.3.5.2}{Installazione di un server per la produzione}{subsection.3.5}% 18
\BOOKMARK [3][-]{subsubsection.3.5.3}{Punti di forza e debolezza}{subsection.3.5}% 19
\BOOKMARK [1][-]{section.4}{Strumenti di analisi dinamica}{}% 20
\BOOKMARK [2][-]{subsection.4.1}{Cprofile e Profile}{section.4}% 21
\BOOKMARK [3][-]{subsubsection.4.1.1}{Installazione e avvio}{subsection.4.1}% 22
\BOOKMARK [3][-]{subsubsection.4.1.2}{Editor grafici}{subsection.4.1}% 23
\BOOKMARK [3][-]{subsubsection.4.1.3}{Punti di forza e debolezza}{subsection.4.1}% 24
\BOOKMARK [2][-]{subsection.4.2}{Pyinstrument}{section.4}% 25
\BOOKMARK [3][-]{subsubsection.4.2.1}{Installazione e avvio}{subsection.4.2}% 26
\BOOKMARK [3][-]{subsubsection.4.2.2}{Punti di forza e debolezza}{subsection.4.2}% 27
\BOOKMARK [2][-]{subsection.4.3}{Pyspy}{section.4}% 28
\BOOKMARK [3][-]{subsubsection.4.3.1}{Installazione e avvio}{subsection.4.3}% 29
\BOOKMARK [3][-]{subsubsection.4.3.2}{Punti di forza e debolezza}{subsection.4.3}% 30
